…
```r
devtools::install_github("lovetoken/getkcode")
library("getkcode")
```

`get_kcode()` 함수를 이용하여 특정 코드를 데이터프레임(tibble 형) 으로 반환할 수 있습니다.


```r
d <- get_kcode("bjd") # 법정동 코드 호출
d
```

```
## # A tibble: 20,544 x 3
##    법정동코드 법정동명                 loadingtime        
##         <dbl> <chr>                    <dttm>             
##  1 1100000000 서울특별시               2020-08-14 20:08:58
##  2 1111000000 서울특별시 종로구        2020-08-14 20:08:58
##  3 1111010100 서울특별시 종로구 청운동 2020-08-14 20:08:58
##  4 1111010200 서울특별시 종로구 신교동 2020-08-14 20:08:58
##  5 1111010300 서울특별시 종로구 궁정동 2020-08-14 20:08:58
##  6 1111010400 서울특별시 종로구 효자동 2020-08-14 20:08:58
##  7 1111010500 서울특별시 종로구 창성동 2020-08-14 20:08:58
##  8 1111010600 서울특별시 종로구 통의동 2020-08-14 20:08:58
##  9 1111010700 서울특별시 종로구 적선동 2020-08-14 20:08:58
## 10 1111010800 서울특별시 종로구 통인동 2020-08-14 20:08:58
## # … with 20,534 more rows
```
…
