README
…
 getkcode      R         .

Getting start

   .

devtools::install_github("lovetoken/getkcode")
library("getkcode")

get_kcode()     (tibble )    .

d <- get_kcode("bjd") #   
d

## # A tibble: 20,544 x 3
##                      loadingtime        
##         <dbl> <chr>                    <dttm>             
##  1 1100000000                2020-08-14 20:08:58
##  2 1111000000          2020-08-14 20:08:58
##  3 1111010100    2020-08-14 20:08:58
##  4 1111010200    2020-08-14 20:08:58
##  5 1111010300    2020-08-14 20:08:58
##  6 1111010400    2020-08-14 20:08:58
##  7 1111010500    2020-08-14 20:08:58
##  8 1111010600    2020-08-14 20:08:58
##  9 1111010700    2020-08-14 20:08:58
## 10 1111010800    2020-08-14 20:08:58
## #  with 20,534 more rows
…
